post.utf8
…
##  6 Engineer                      FALSE joe.macpherson@co.anoka.mn.us
##  7 (763)                         TRUE  joe.macpherson@co.anoka.mn.us
##  8 324-3199                      FALSE joe.macpherson@co.anoka.mn.us
##  9 1440                          TRUE  joe.macpherson@co.anoka.mn.us
## 10 Bunker                        TRUE  joe.macpherson@co.anoka.mn.us
## 11 Lake                          TRUE  joe.macpherson@co.anoka.mn.us
## 12 Blvd                          TRUE  joe.macpherson@co.anoka.mn.us
## 13 NW                            FALSE joe.macpherson@co.anoka.mn.us
## 14 Andover,                      TRUE  joe.macpherson@co.anoka.mn.us
## 15 MN                            TRUE  joe.macpherson@co.anoka.mn.us
## 16 55304                         FALSE joe.macpherson@co.anoka.mn.us
## 17 joe.macpherson@co.anoka.mn.us FALSE joe.macpherson@co.anoka.mn.us
## 
## $`joe.triplett@co.chisago.mn.us`
## # A tibble: 22 x 3
##    text      space person_identifier            
##    <chr>     <lgl> <chr>                        
##  1 Chisago   TRUE  joe.triplett@co.chisago.mn.us
##  2 County    FALSE joe.triplett@co.chisago.mn.us
##  3 Joe       TRUE  joe.triplett@co.chisago.mn.us
##  4 Triplett  FALSE joe.triplett@co.chisago.mn.us
##  5 Public    TRUE  joe.triplett@co.chisago.mn.us
##  6 Works     TRUE  joe.triplett@co.chisago.mn.us
##  7 Director/ TRUE  joe.triplett@co.chisago.mn.us
##  8 County    FALSE joe.triplett@co.chisago.mn.us
##  9 Engineer  FALSE joe.triplett@co.chisago.mn.us
## 10 (651)     TRUE  joe.triplett@co.chisago.mn.us
## #  with 12 more rows
## 
## $`john.welle@co.aitkin.mn.us`
…
##  5 County                       TRUE  mark.daly@co.faribault.mn.us
##  6 Engineer                     FALSE mark.daly@co.faribault.mn.us
##  7 (507)                        TRUE  mark.daly@co.faribault.mn.us
##  8 526-4288                     FALSE mark.daly@co.faribault.mn.us
##  9 PO                           TRUE  mark.daly@co.faribault.mn.us
## 10 Box                          TRUE  mark.daly@co.faribault.mn.us
## 11 325                          FALSE mark.daly@co.faribault.mn.us
## 12 Blue                         TRUE  mark.daly@co.faribault.mn.us
## 13 Earth,                       TRUE  mark.daly@co.faribault.mn.us
## 14 MN                           TRUE  mark.daly@co.faribault.mn.us
## 15 56013                        FALSE mark.daly@co.faribault.mn.us
## 16 mark.daly@co.faribault.mn.us FALSE mark.daly@co.faribault.mn.us
## 
## $`mel.odens@kcmn.us`
## # A tibble: 21 x 3
##    text      space person_identifier
##    <chr>     <lgl> <chr>            
##  1 Kandiyohi TRUE  mel.odens@kcmn.us
##  2 County    FALSE mel.odens@kcmn.us
##  3 Mel       TRUE  mel.odens@kcmn.us
##  4 Odens     FALSE mel.odens@kcmn.us
##  5 Public    TRUE  mel.odens@kcmn.us
##  6 Works     TRUE  mel.odens@kcmn.us
##  7 Director/ TRUE  mel.odens@kcmn.us
##  8 County    FALSE mel.odens@kcmn.us
##  9 Engineer  FALSE mel.odens@kcmn.us
## 10 (320)     TRUE  mel.odens@kcmn.us
## #  with 11 more rows
## 
## $`phillip.wacholz@co.freeborn.mn.us`
…
